key,Hrvatski,English,
key,hr,en,
nanny,Čuvalica,Nanny,
need_a_nanny,Trebam čuvalicu,Book a nanny ,
book_a_ride,prijevoz,Book a ride ,
from,Od,From,
to,Do,To ,
next,Dalje,Continue ,
name_surname,Ime i prezime,Full name ,
email,Email,Email,
phone,Telefon,Telephone ,
message,Poruka,Message ,
send_a_question,POŠALJI UPIT,Submit a question ,
all_fields_required,Sva polja su obavezna,All fields required ,
terms_of_use,Opći uvjeti,Terms of use,
easy_reservation,Jednostavno rezerviranje,Simple booking ,
easy_reservation_text,"Trebate li čuvalicu za svoje dijete, a ne znate kome se obratiti? Mi smo tu da vam pomognemo! Preko Nanny.hr rezervirajte čuvalicu u samo četiri jednostavna koraka. I sve to možete obaviti iz udobnosti svog kauča – rezerviranje i plaćanje potpuno su automatizirani i sigurni!","Book nannies with ease 
when you need them, where you need them.
Need a nanny for you child, but don’t know whom to turn to? We’re here to help! Book a nanny through Nanny.hr in four simple steps, all just from the comfort of your couch – bookings and payments are automated and safe. 
",
tested_nannies,Provjerene čuvalice,Prescreened and vetted nannies,
tested_nannies_text,"Kako bismo opravdali Vaše povjerenje, pažljivo vršimo odabir i provjeru svih naših čuvalica. Sve naše čuvalice prošle su naša stručna testiranja i ispunjavaju visoke standarde.","In order to justify your trust, Nanny.hr does the homework for you, carefully curating a network of vetted nannies. The vetting process includes background checks, reference checks, interviews, and psychological testing.",
non_stop_availability,"Raspoloživost 0-24/7 ",24/7 Availability,
non_stop_availability_text,"Mi smo tu za Vas da zajedno najbolje organiziramo Vaše vrijeme kada Vam je potrebno malo predaha od svakodnevnih dužnosti, kada imate neodgodive poslovne obveze ili izvanredne situacije ili kada jednostavno želite popiti kavicu u miru s prijateljima dok su Vam djeca u blizini ali pod budnim i brižnim okom naših teta čuvalica.","We will help you best organize your time when you need a break from everyday responsibilities, or have business urgencies you can’t delay, or simply wish to have a cup of coffee and chat with friends resting assured your child is being cared for and under a vigilant eye of our nanny.",
search_for_nanny,"Pronalazak dostupne čuvalice",Finding an available nanny,
search_for_nanny_text,"Iako strogo vodimo računa da naše čuvalice ne otkazuju ili mijenjaju dogovoreni termin, nažalost ponekad su takve situacije neizbježne. U takvim situacijama mi Vam nudimo i pronalazak dostupne čuvalice za isti termin uz, naravno, Vašu suglasnost.","Although we hold strict cancellation policy and try our best for nannies to respond to every booking, sometimes those cancellations are inevitable. In such situations we offer you the next available nanny with your approval.",
children_transport,Prijevoz djece u sigurnim vozilima,Child transportation,
,,"We care for children and therefor possess only the best and safest car seats on the market. Romer and Maxi-Cosi car seats brands ensure a perfect fit and a secure ride for kids of all ages.

",
children_transport_text_part1,"Maxi-Cosi autosjedalice nude najbolje sigurnosne performanse i udobnost. Naše Maxi-Cosi autosjedalice
                namijenjene su uzrastu od 0-11 mjeseci, ovisno o visini i težini bebe, i okrenute su prema natrag,
                suprotno od smjera kretanja vozila. Naslonjač za glavu i sigurnosni pojasevi su lako prilagodljivi kako
                bi djetetu osigurali potpunu udobnost, a pojasevi se lako otvaraju kako bi se dijete moglo jednostavno
                izvaditi i staviti u sjedalicu. Uz Maxi-Cosi nepomičnu bazu, autosjedalica nudi vrlo korisnu i
                multifunkcionalnu opciju click-and-go (klikni i kreni) sustava.","The Maxi-Cosi car seat offers top safety performance and the ultimate convenience.
The headrest and harness are easy to adjust to ensure a comfortable fit and the harness stays conveniently open when the child is lifted in and out. When used with a Maxi-Cosi base unit, the car seat provides a highly convenient click-and-go system. Our Maxi-Cosi car seat fits a newborn to a 11-old-month baby depending on the size and weight of the infant. 
",
children_transport_text_part2,"Naše Romer Britax autosjedalice su pozicionirane prema naprijed u smjeru kretanja vozila i namijenjene
                djeci starosti od 9 mjeseci do 4 godine (9-18kg). Pružaju jedinstvenu udobnost s dubokom potporom za
                tijelo i naslonjačima za ruke sa strane uz mogućnost spuštanja autosjedalice. Naslonjač za glavu i
                visina sigurnosnih pojaseva su također lako podesivi.",Our Romer britax car seat is a forward facing installation and intended for group ages of 9-months to 4-year-old kids (9-18kg). It provides comfort without compromise with deep padded side wings and multi-position recline; headrest height-adjustable headrest and harness with easy single-hand adjustments to perfectly fit and provide comfort for your child.,
monitor_care,Uvid u tijek čuvanja vašeg djeteta,Baby monitors for rent,
monitor_care_text,"Nanny.hr Vam nudi uslugu iznajmljivanja baby monitora kako bi u svakom trenutku mogli imati uvid u tijek
                čuvanja vašeg djeteta. S našim kamerama imate sliku i zvuk uživo i čak se putem mikrofona možete
                obratiti djetetu i čuvalici koja brine za Vaše dijete.
                Kameru možete usmjeravati u željenom
                pravcu pokretom prsta na ekranu svog
                pametnog telefona.","Nanny.hr offers you baby monitor for rent, which gives you a full insight into the babysitting session. Our baby monitor enables you supervision and a live picture and sound on your smartphone display. Also, camera’s built-in microphone allows you to talk to both your child and the nanny caring for your child. Point the camera lens in any direction using fingertips on your smartphone. ",
how_to_make_reservation,Kako rezervirati čuvalicu?,How to make a booking,
sign_up_or_register,Prijavi se/Registriraj se,"Sign in/Register
",
sign_up_or_register_text,"Popunite osnovne podatke o vašoj obitelji i potrebama. Sigurnost i privatnost vaših osobnih
                podataka je zajamčena.",Fill out a brief questionnaire providing information about your family and special needs you have. Safety and privacy of your information is guaranteed.,
choose_care_time,Odaberi termin čuvanja,Choose a time for the booking ,
choose_care_time_text,"Jednostavno odaberite termin u kalendaru ili nas kontaktirajte
                ako trebate rezervirati
                višestruke termine.","Simply choose a date and time you need a nanny for by using our calendar, or contact us for multiple or recurring bookings. ",
choose_nanny,Odaberi čuvalicu,Choose a nanny ,
choose_nanny_text,"Na temelju profila čuvalica odaberite željenu čuvalicu,
                a mi ćemo za Vas provjeriti
                njezinu dostupnost.","Simply choose a nanny by selecting their profile or let us match you with one, that best meets your needs. We will subsequently confirm nanny’s availability for the selection you have made.",
payment,Plaćanje,Payment,
payment_text,"Plaćanje je omogućeno kreditnim i debitnim karticama, kao i izravnom uplatom na bankovni račun Nanny.hr.",Payment can be conducted by credit cards or making a direct deposit to Nanny.hr bank account ,
i_want_to_be_nanny,Postani čuvalica,Become A Nanny,
i_want_to_be_nanny_text,"Ukoliko je čuvanje djece Vaša strast, svoje slobodno vrijeme možete pametno iskoristiti i usput dodatno zaraditi. Ako ste odgovorni, strpljivi i imate puno razumijevanja za rad s djecom, javite nam se, voljeli bismo Vas upoznati. Slobodno ispunite prijavu ili nam pošaljite svoj životopis i pismo motivacije na email: info@nanny.hr ili nas kontaktirajte na Kontakt.","If you are passionate about caring for children, you can use your spare time wisely and turn it into money making. If you are responsible, patient, caring, loving and possess plenty of understanding for children, contact us; we would love to hear from you. Fill out and submit the questionnaire below or send us your resume at: info@nanny.hr",
children_care_experience,Imate li iskustva u čuvanju djece,Professional experience working with children,
educated_care,Jeste li educirani za čuvanje djece,Are you educated for working with children,
yes,Da,Yes,
no,Ne,No,
submit,Pošalji,Submit ,
pricing,Cjenik,Rates ,
nanny_fee,Naknada za čuvalicu,Hourly rate for nannies ,
nanny_fee_long,Naknada za čuvalicu za dugotrajna čuvanja (6 sati i više),Hourly rate for nannies for 6 or more hours ,
agency_fee_short,Agencijska naknada za kratka čuvanja (1-2.5 sata),Agency's commision for bookings between 1-2.5 hours  ,
agency_fee_medium,Agencijska naknada za čuvanja u trajanju 3-5.5 sati,Agency's commision for bookings between 3-5.5 hours  ,
agency_fee_long,Agencijska naknada za dugotrajna čuvanja (6 sati i više),Agency's commision for 6 or more hours ,
one_time,Po čuvanju,Per session,
smart_package,Smart paket - Agencijska naknada za 10 čuvanja,Smart package - Agency's commission for 10 bookings ,
nanning,Čuvanja,Babysitting ,
hours_pricing,Iskazane cijene se odnose na čuvanje jednog djeteta u dnevnim satima (od 7:00h - 20:00h).,Rates disclosed are for a single child during daytime hours (7:00am – 8:00pm). ,
package_usage,Paket se može iskoristiti u razdoblju od 2 mjeseca od dana kupnje paketa i ne može se kombinirati s drugim popustima.,"Smart package is valid for two months from the date of purchase, and cannot be combined with other discounts.",
note,Napomene,Notes ,
note1,Čuvanje u noćnim satima (20:00h - 7:00h) i vikendom se naplaćuje dodatnih 5 kuna po satu.,Babysitting during night hours (between 8:00pm-07:00am) are subject to surcharge of additional 5 kunas per hour.,
note2,Čuvanje većeg broja djece se naplaćuje dodatnih 5 kuna po satu za svako dodatno dijete.,Babysitting multiple children is subject to surcharge of additional 5 kunas per every additional child.  ,
note3,"Za nacionalne praznike, Badnjak i Staru godinu cijena čuvanja i agencijska naknada se uvećavaju za 50%.","Babysitting rates are subject to surcharge increase of 50% during national holidays, Christmas Eve, and New Year’s Eve.",
note4,Prijevoz djece u i iz škole/na izvanškolsku aktivnost naplaćuje se dodatnih 70 kn (do 20km udaljenosti). Dodatna kilometraža se dodatno obračunava.,Transportation for kids to and from school or other activities is charged 70 kunas flat rate for up to 20 kilometers. Additional milage applies. ,
note5,Najam baby monitora (Lefun pomična kamera s wireless vezom s pametnim telefonima) naplaćuje se 15 kn po čuvanju.,Baby Monitor for rent (Lefun wireless Wireless WiFi IP Surveillance Camera HD 720P Nanny Cam) is 15 kunas per booking.,
note6,Cijena dugoročne čuvalice određuje se na upit i prema dogovoru.,Rates for a fulltime nanny are determined upon request.,
news,Novosti i savjeti,News ,
in_development,Stranica u izradi,Page under construction ,
about,O nama,About Us,
about_text_bold,"Trebate li pouzdanu osobu koja bi čuvala vaše dijete na nekoliko sati, a nemate povjerenja u nepoznate osobe iz oglasnika? Tete koje vam preporučuju prijatelji su redom zauzete mjesecima unaprijed? Vašim roditeljskim mukama došao je kraj!","Need a trustworthy nanny who would occasionally care for your child for a few hours, but it’s too risky to rely upon random Internet ads? Nannies recommended by your friends are already booked too far in advance? Your parental worries have finally come to an end.",
about_text,"<p>Nanny.hr je specijalizirana agencija za posredovanje pri pružanju usluga povremenog čuvanja djece. Nanny.hr na jednostavan i brz način povezuje roditelje s čuvalicama za sve vrste čuvanja djece svih starosnih grupa i različitih potreba. Naš je zadatak da vam za željene termine i potrebe ponudimo potencijalne čuvalice iz našeg tima i provjeravamo njihovu dostupnost te potvrđujemo njihov dolazak ili nudimo adekvatnu zamjenu. Naša široka mreža iskusnih i provjerenih čuvalica nam omogućava da osiguramo dostupnost naših usluga kada god je to Vama potrebno.</p>

<p>Pronalazak prave osobe koja bi se povremeno brinula o Vašem djetetu odgovoran je zadatak! Zato našim klijentima garantiramo visoku kvalitetu naše usluge - sve naše čuvalice ispunjavaju najviše standarde brige za Vaše dijete. Nanny.hr oprezno bira svoje osoblje - uz pomoć stručnog tima školovanog i osposobljenog za rad s djecom selektiramo samo najbolje za brigu o Vašim mališanima. Usto, za naše čuvalice po potrebi organiziramo edukacijske programe i situacijske treninge kako bi naše čuvalice bile u potpunosti osposobljene za sve predvidive i nepredvidive situacije.</p>

<p>Nanny.hr se trudi da se svako odabrano čuvanje realizira s osobom koju ste odabrali, a samo ukoliko to zaista ne bude moguće, omogućava Vam i zamjensku čuvalicu. Nemate razloga za brigu, držimo najstrožije standarde u odabiru čuvalica za koje smo odgovorni i iza kojih stojimo. Mi izuzetnu pažnju poklanjamo sretnom i zadovoljnom korisniku zbog kojeg u konačnici i postojimo. Uvjereni smo da će naše osoblje uvijek biti na visini zadatka, i zbog toga smo spremni razgovarati o modifikaciji ili refundiranju plaćenih sredstava u slučaju Vašeg nezadovoljstva. Iznimno nam je važno da čujemo Vaše mišljenje i potrebe, kao i pohvale i sugestije kako se možemo poboljšati i usavršiti. Stoga nas slobodno kontaktirajte na Kontakt.</p>

<p>Još nikada niste koristili čuvalice i imate neke nedoumice oko angažiranja čuvalica? Niste sigurni da je Nanny.hr pravi izbor za vas? Trebate dodatne informacije i pojašnjenja? Slobodno nam se javite na Kontakt, bit će nam zadovoljstvo odgovoriti na sva Vaša pitanja!</p>

<p>Omer Zvizdić, osnivač i direktor Nanny.hr: “Kao novopečeni roditelj, prepoznao sam da tržište ne nudi opciju povremenog ili višekratnog čuvanja djece, s osobljem koje je kompetentno i iza kojih stoji pouzdana agencija. Mi Vam pružamo – pouzdanost, sigurnost i stalnu dostupnost.”</p>","<p>Agency Nanny.hr specializes in providing babysitting services per hour. The agency connects nannies and parents with kids of all ages and requirements in a simple and timely manner. It is our mission to provide you with nannies for the time-slot requested, and confirm their availability and consent for the booking, or offer you a substitute nanny in case we are unable to fulfill the request for your initial choice.
Our network of prescreened and experienced nannies allows us to ensure availability of our services whenever you need them. </p><p>Picking the right person who would occasionally care for your child is tremendously important and responsible job! We attract the best families and therefore we thrive to provide the best quality service to our clients. Nanny.hr has lofty aspirations, and all of our nannies have met the highest standards in childcare. Nanny.hr carefully choses its personnel – with the support of qualified and educated team of professionals in childcare, together we select and vet only the best to care for your precious ones. When necessary we provide educational programs and illustrational training of everyday examples to our nannies, e.g. real situations one may encounter in the business, and educate them how to overcome them properly. </p><p>Nanny.hr will do everything to complete booking arrangement with your initial nanny choice, however in the event that your selection is prevented to respond; we will offer you an available substitute. No need for worry, we hold highest standards in selecting our nannies for which we feel responsible and whom we entirely support. A happy and satisfied client is our goal. We are entirely confident our nannies will always meet your expectations, and we are ready to negotiate with you about any modification in price or a refund, in case we fail to meet those expectations. It is immensely important that we hear from you and receive your feedback to improve in areas where you feel improvement is necessary, or hear a word of praise for the services you were content with. Do not hesitate to contact us.</p> <p>You have never utilized babysitting service before and have some doubts regarding hiring a nanny? You are not completely certain about choosing the right nanny? Or you need additional information and/or explanation? Please feel free to contact us, it will be our pleasure to answer all your questions and concerns.</p> <p>Omer Zvizdić is the founder and director of Nanny.hr “As a newly dad, I have recognized the necessity for such services and decided to introduce them to the market. Occasional or recurring childcare service, provided by qualified and knowledgeable personnel, and supported by a trustworthy agency lacked existence before the foundation of Nanny.hr. We offer you – safety, availability and reliability! </p>

",
our_story,Naša priča,Our Story ,
our_story_text,"<p>Tvrtku je osnovao Omer Zvizdić, otac tada dvadesetomjesečne kćerke Hane: “Godinama sam živio i radio SAD-u u Washingtonu, D.C. kao istraživački novinar i analitičar, gdje sam upoznao svoju suprugu i gdje nam se rodila naša kćerkica. Dolaskom u Zagreb život nam se iz temelja promijenio. U našoj maloj sretnoj obitelji, ja sam ostajao kod kuće uz našu kćerku jer se supruga morala vratiti na posao. Svakim danom sam se sve više upoznavao i usavršavao u ulozi roditelja, ali ipak nam je ponekad trebala dodatna pomoć u čuvanju djeteta.</p>

<p>Pronaći čuvalicu na nekoliko sati tijekom večeri ili vikenda izgledalo je kao nemoguća misija. Oglasi koje smo pronalazili na internetu činili su se prerizičnima i nepouzdanima i nikada se nismo usudili angažirati osobe koje same sebe hvale bez referenci ili stručne kvalifikacije. Ideja o agenciji tako se rodila iz osobne potrebe. Takva bi nam agencija učinila život lakšim, omogućila nam bolje organiziranje i olakšala funkcioniranje naše obitelji. Osim toga, slični koncepti već postoje drugdje u svijetu i odlično funkcioniraju. Nakon dugotrajnog istraživanja tržišta, razgovora s prijateljima i poznanicima, bili smo još više uvjereni i ohrabreni da krenemo u ovaj poslovni pothvat. Kao svjedoci i korisnici uspješnih agencija za povremeno čuvanje djece u inozemstvu, a ujedno i brižni roditelji, povezali smo ta dva svijeta i stvorili Nanny.hr.</p>","<p>The agency was founded by Omer Zvizdić, father of then a 20-month-old daughter Hana: “I lived in Washington, D.C. for years working as a journalist and an analyst. My wife and I met in D.C., and our daughter was born there. Our lives have completely changed after arriving to Zagreb. I found myself in a position of being a stay-at-home dad, while my wife went to work. Each day I have perfected my parental role and skills. Despite all we still needed an extra hand occasionally. Someone reliable, and trustworthy who would provide care for our daughter and keep us “sane”.</p> <p>Finding an occasional nanny- for a few hours during nights or weekends seemed impossible. Babysitting ads on the Internet simply seemed too dangerous and unsafe. Solely the idea of entrusting someone unknown to look after a most valuable and significant person in every parent's life without any prescreening, background or reference check was unacceptable. Our business is a product of our own necessity. We thought our lives would be much simpler if only there was an agency offering services that we offer today. More importantly such agencies already exist all around the developed world. We do not consider ourselves to be inventors, but rather implementers of good ideas. That is why we have founded Nanny.hr. </p>",
our_services,Naše usluge,Our services ,
our_services_bold,Agencija Nanny.hr specijalizirana je za posredovanje u pružanju usluga povremenog čuvanja djece koje se najčešće obavlja u stanu roditelja/staratelja. Naše usluge uključuju:,Nanny.hr specializes in offering part-time nanny services conducted in a family's home or other location specified by the parent. Our services include:,
our_services_text1,čuvanje djece nekoliko puta tjedno ili mjesečno,Babysitting for a few hours several times a week or month,
our_services_text2,"dnevno, večernje i noćno čuvanje",Babysitting during day or night ,
our_services_text3,čuvanje vikendom i praznicima (npr. Novogodišnja noć),Babysitting during weekends and holidays ,
our_services_text4,"prijevoz djeteta u predškolsku, školsku ustanovu ili na druge aktivnosti",Providing transportation for children to or from school and other activities ,
our_services_text5,čuvanje djece ukoliko su bolesna i ne mogu ići u vrtić ili školu,Caring for ill children who have to miss kindergarten or school ,
our_services_text6,čuvanje djece na putovanjima s obitelji,Traveling with families and caring for children ,
our_team,Naš tim,Our team,
our_team_text,"<p>Naše čuvalice su pažljivo selektirane i testirane kako bismo vam mogli jamčiti njihovu kompetentnost i pouzdanost. Usto, važno nam je da naše čuvalice posjeduju osobine kao što su pouzdanost, nježnost, savjesnost i veliku ljubav prema djeci, kao i da budu kreativne osobe s iskustvom u brizi o djeci.</p>

<p>Čuvalice u Nanny.hr timu pažljivo su odabrane uz pomoć stručnog tima pedagoga i psihologa. Uz stručna i psihološka testiranja, prethodna provjera našeg osoblja podrazumijeva i prikupljanje i analiziranje svih preduvjetnih preporuka i dokumentacije, uključujući sanitarnu knjižicu i sudsko uvjerenje o nekažnjavanju. Zbog ozbiljnosti ovog posla i naše bezrezervne predanosti njemu, sve priloženo detaljno provjeravamo, a uz suglasnost kandidata provodimo i dodatne samostalne provjere. To je svakako ključan korak da bismo za pronašli najbolje i najkometentnije osobe za vas.</p>

<p>Težimo ka kontinuiranom napredovanju i usavršavanju i s toga vodimo brigu o praćenju najaktualnijih i najviših standarda čuvanja djece. Po potrebi organiziramo i nudimo edukacijske programe i treninge za naše čuvalice iz različitih područja, uključujući razvojno/kreativne aktivnosti, zdravlje djece, prehrambene potrebe, sigurnost doma itd.</p>

<p>Tu smo zbog Vas i želimo čuti Vaše mišljenje. Naš poslovni uspjeh uvjetovan je Vašim zadovoljstvom i srećom Vašeg djeteta i zbog toga želimo čuti Vaša iskustva i potrebe. Stoga Vas nakon svakog čuvanja molimo za Vašu ocjenu naše usluge, kako biste nam pomogli da napredujemo u kvaliteti našeg rada, kako pojedinačno, tako i kao tim u cjelini.</p>","<p>Our nannies are carefully selected and tested to ensure you quality and reliable service. It is fundamental for our nannies to be trustworthy, attentive, and professional. We expect them to posses great amount of love for children and joy when working with them. Our nannies are expected to be creative and proficient in working with children. </p>

<p>Qualified and experienced psychologists help us choose the best-qualified nannies on the market to join our team. Interviews, psychological testing, prescreening, professional referrals from past or current employers, and medical and criminal background checks are a standard procedure for all our nannies. With the permission of our nannies we thoroughly examine all the documentation provided, and when necessary, request additional evidence.</p>

<p>We thrive to continuously advance and perfect our services, and therefore carefully monitor all the advancements and updates in the industry in order to maintain the pace and excellence in our business. Educational seminars and trainings for our nannies on various topics in childcare e.g. developmental and creative activities, kids health, feeding habits, and safety at home are among many we offer. </p>

<p>Tell us your opinion, and share your suggestions with us for the overall betterment of our services. We want to hear from you. We cordially invite you to give us your feedback upon termination of every babysitting session with our nannies, to help us prosper and serve you better individually, and as a team. </p>
",
contact,Kontakt,Contact ,
contact_text,"<p>Još nikada niste koristili čuvalice i imate neke nedoumice oko angažiranja čuvalica? Niste sigurni da je Nanny.hr pravi izbor za vas? Trebate dodatne informacije i pojašnjenja? Slobodno nam se javite, bit će nam zadovoljstvo odgovoriti na sva Vaša pitanja! <p>

<p>Već ste koristili naše usluge? Iznimno nam je stalo da čujemo Vaše mišljenje o našem radu i radu naših djelatnica i djelatnika, kao i sugestije kako se možemo poboljšati i usavršiti. Javite nam se s povratnim informacijama!</p>","<p>Never had an opportunity to utilize nanny services before, and have doubts or concerns about hiring one? You are not convinced Nanny.hr is the right choice for you? Or, you need additional information and clarification? No problem, we stand ready to answer all your queries!  </p>

<p>You have already utilized our services? We extremely value your opinion and would love to hear your experience with our nannies and us. Give us your feedback.</p>  ",
password,Zaporka,Password,
sign_in,Prijava,Sign in,
register,Registrirajte se,Register,
forgot_password,Zaboravili ste zaporku,Forgot your password,
edit_family,Uredi obitelj,Edit family information ,
edit_parents,Uredi roditelje,Edit parenets,
edit_children,Uredi djecu,Edit children information ,
reservations,Rezervacije,Bookings ,
family,Obitelj,Family ,
family_name,Prezime obitelji,Family Last Name,
address,Adresa lokacije,Street Address,
address_number,Broj adrese,Street Number ,
city,Grad,City ,
state,Država,Country ,
zip_code,Poštanski broj,Zip code,
own_a_pet,Posjedujete ljubimce,Do you have any pets,
which_pet,Koji ljubimci?,"If so, which pet(s)?",
save_changes,Spremi promjene,Save changes ,
back,Nazad,Back,
next_page,Sljedeća stranica,Next page ,
previous_page,Prethodna stranica,Previous Page,
add_parent,Dodaj roditelja,Add a parent ,
oib,OIB ,OIB,
gender,Spol,Gender ,
parent_type,Tip,Type ,
relation,Srodstvo,Relation ,
options,Opcije,Options ,
manage,Uredi,Edit ,
delete,Izbriši,Delete ,
type,Vrsta,Type ,
save_changes,Spremi,Save changes ,
allergies,Alergije,Allergies ,
allergies_info,Koje alergije?,Please list all allergies ,
special_note,Specijalna napomena,Add Special Note,
male,Muško,Male,
female,Žensko,Female,
finish,Završi,Save,
add_child,Dodaj dijete,Add another child,
available_nannies,Dostupne čuvalice,Available nannies ,
for_period,Za period,For period ,
or,ili,Or,
more_about_available_nannies,"Ako želite znati više o dostupnim čuvalicama,","If you would like to learn more about our available nannies,  ",bio razmak prije zareza 
reservation_made,Rezervacija napravljena dana,Booking made on the date ,
number_of_reservations,Broj rezervacija,Number of bookings ,
total,Ukupno,Total ,
payed,Plaćeno,Paid ,
details,Detaljno,Detailes ,
on_a_day,Za dan,Date,
start,Početak,Start time,
end,Kraj,End time,
children,Djeca,Children,
nanny_for,Za koga trebate čuvalicu,Nanny is for? ,
additional_children,Broj dodatne djece,Additional number of children ,
reservation_address,Na koju adresu želite da čuvalica dođe?,Location where you expect the nanny to arrive to? ,
special_reservation_notes,"Posebne potrebe, zahtjevi i druge napomene",Special notes and requests  ,
pick_a_nanny,"Molimo odaberite jednu ili više od ponuđenih čuvalica oznakom kockice ispod imena. Prvi odabir je ujedno i Vaš prvi izbor, drugi odabir je drugi izbor i tim redom U slučaju da trebate angažirati više čuvalica za isto čuvanje kontaktirajte nas",Please select one or more of available nannies. First selection is your first choice. Every next selection follows in order. In case you need to hire multiple nannies for the same babysitting session please contact us. ,
replacement_nanny,"U slučaju spriječenosti odabrane čuvalice, ili drugih nepredviđenih okolnosti, pokušat ćemo s Vašim sljedećim odabirom, a Nanny.hr zadržava pravo da ponudi dostupnu čuvalicu koja odgovara Vašim potrebama.","In the event that an emergency prevents a first selected nanny from fulfilling this booking, we will attempt confirming your second choice. Also, Nanny.hr reserves the right to match you with an available nanny that best meets your demands. ",
proceed,Nastavi,Continue,
more,Više,More,
price,Cijena,Price ,
accept_terms,Prihvaćam opće uvjete Nanny.hr,I accept Terms of use ,
promo_code,Posjedujete promo kod? Upišite ga ovdje,Enter a promo code if you have one,
baby_monitor,Baby monitor,Baby Monitor ,
damaged_baby_monitor_info,"U slučaju bilo kakvog oštećenja ili nestanka Baby monitora, Naručitelj koji je posljednji iznajmljivao Baby momonitor a nije prijavio bilo kakve nedostatke ili oštećenja, suglasan je da snosi ukupnu cijenu nadomještanje istog ili novijeg modela Baby monitora.","In the event of damage or disappearance of Baby Monitor, client who last rented the Baby Monitor and has not reported any malfunctioning and/or damage, consents to replace the Baby Monitor with same or a newer version, or cover full cost of the device.",
pay_with_paypal,Plati sa PayPal,Pay with PayPal,
pay_with_payway,Plati sa PayWay,Pay with PayWay,
direct_payment,Uplati na račun,Bank account Payment ,
direct_payment_info,Možete izvršiti izravnu uplatu na bankovni Nanny račun na sljedeći način:,Direct deposits to Nanny.hr bank account are conducted as follows: ,
accepted_side,Primatelj,Payee ,
accepted_side_account,Račun primatelja,Payee account / IBAN,
model,Model: 01,Model: 01 ,
direct_payment_number,Poziv na broj: slobodno ostavite prazno ili upišite kombinaciju brojeva koja ima značenje za Vas vezano uz pojedino plaćanje (na primjer datum 06092010).,Credit Reference Number: You may leave it blank or type in a combination of numbers of significance to you (for example date of payment).  ,
direct_payment_family,U opisu plaćanja obavezno navedite prezime obitelji za koju se rezervira čuvanje.,"Please note the last name of the family in the purpose filed, on which behalf the payment is being completed. ",
foreign_payment,Za plaćanja iz inozemstva,For payments from abroad ,
confirm_reservation,Potvrdi rezervaciju,Complete Booking ,
payment_success,"Rezervacija uspješna, provjerite vaš email za informacije o rezervaciji.",The booking is successful; please check your email for details about the booking ,
back_to_profile,Nazad na profil,Return to profile ,
payment_failed,Plaćanje nije uspjelo,Payment failed ,
name,Ime,Name,
surname,Prezime,Last name,
dob,Datum rođenja ,Date of birth,
email,Email,Email,
agree_to_supervision,Pristajem na nadzor uz Baby monitor,I accept supervision with baby monitor,
brief_description,Kratki opis,Brief description,
experience_babysitting,Godine iskustva u radu s djecom,Years of experience in babysitting,
experience_earning_money,Godine iskustva u radu s djecom na plaćenim poslovima,Years of experience in earning money as a babysitter,
most_experienced_with_children_of_age,Najviše iskustva imam s djecom uzrasta od ,I am most experienced in working with children between the age of,
urgent_demand,Mogu hitno prihvatiti posao,I can respond to urgent demand for a babysitter,
maximum_travel_distance,Maksimalna udaljenost na koju pristajem,Maximum travel distance I accept to the place of babysitting is,
work_places,Mjesta u kojima mogu obavljati čuvanja,Places and venues I am comfortable babysitting at ,
personal_car,Osobni auto,Personal car,
drivers_license,Vozačka dozvola,Drivers license,
education_level,Stupanj obrazovanja,Education level,
occupation,Zanimanje,Occupation,
foreign_languages,Znanje stranih jezika,Foreign languages,
additional_skills,Dodatne vještine,Additional skills,
additional_qualifications,Dodatne kvalifikacije,Additional qualifications,
comfortable_with_pets,Snalaženje s kućnim ljubimcima,Are you comfortable around pets,
ill_child_care,Briga za bolesnu djecu,Are you willing to care for an ill child,
special_need_care,Briga za djecu s posebnim potrebama ,Are you willing to care for a child with special needs,
parent_children_number,Broj djece ,Number of children,
is_parent,Roditelj sam,Are you a parent,
smoker,Pušač sam,Are you a smoker ,
per_reservation,po čuvanju,Per babysitting,
per_10_reservations,za 10 čuvanja,For 10 babysitting sessions,
login,Prijavite se,Login,
parent,Roditelj,Parent,
tooltip_1,Nanny jamči Naručiteljima potpunu diskreciju u odnosu na sve podatke o Naručiteljima i/ili osobama kojima se usluga pruža.  Nanny prikuplja njihove osobne i druge podatke te o njima vodi evidenciju. Sve prethodno navedeno Nanny čini samo u mjeri u kojoj je to potrebno za uredno izvršenje usluga koje pruža te u mjeri u kojoj je to potrebno za uredno izvršenje njenih obveza iz zakona i drugih prisilnih propisa.,"Nanny.hr pledges complete discretion of all disclosed personal information of our clients or parties utilizing our services. Nanny.hr collects and keeps a safe record of client’s personal and other information; in align with law and regulations, and to the extent necessary for unimpeded execution of Nanny.hr services.",
emergency_contact,Kontakt za hitne slučajeve,Emergency contact,
next_step,Sljedeći korak,Next step,
child,Dijete,Child,
no_available_nannies,Nema dostupnih čuvalica za ovaj period,No available nannies for the time requested  ,
activate_package,Aktiviraj paket,Activate package ,
currently_active_package,Trenutno aktivan paket,Currently active package ,
uses_left,Preostalo korištenja,Remaining credit,
time_chosen_error_message,"Izabrali ste vrijeme u prošlosti, molimo da izaberete važeće vrijeme",Please select a valid time and date; time and date selected have expired. ,
num_of_children,Broj djece,Number of children,
for_children,Za djecu,For children,
close,Zatvori,Close ,
select_one_nanny,Morate odabrati barem jednu čuvalicu ,Please select at least one nanny ,
login_successful,Uspješno ste logirani,Login successful,
email_required,Polje e-mail je obvezno i mora biti u formi e-maila,Email field is required and must be in a form of a valid email address ,
password_required,Molim unesite zaporku,Please enter your password ,
account_disabled,"Korisnički račun je onemogućen, kontaktirajte info@nanny.hr za pitanja","User account has been suspended, please contact us at info@nanny.hr for details ",
wrong_credentials,Netočan e-mail ili zaporka,Incorrect email or password ,
email_change_password,Provjerite vaš e-mail sa informacijama za izmjenu zaporke,Please check your email for password change instructions ,
token_expired,Promo kod je istekao,Promo code has expired ,
password_changed,Lozinka je uspješno promijenjena,Password successfully changed ,
enter_start_time,Unesite datum i vrijeme početka čuvanja,Please enter time and date for the beginning of session ,
enter_end_time,Unesite datum i vrijeme kraja čuvanja,Please enter time and date for the end of session,
time_not_valid,Izabrali ste vrijeme u prošlosti ili vrijeme koje nije valjano,You have selected an invalid time or date ,
missing_address,Niste odabrali ili upisali adresu za rezervaciju koju želite napraviti ,You haven’t selected or entered the address for the booking ,
missing_children,Niste odabrali ili upisali broj djece za koju želite napraviti rezervaciju,You haven’t selected or entered the number of children for the booking ,
minimum_one_contact,Minimalno jedan kontakt mora biti prisutan,Minimum of one contact must be present ,zavisi od kontekst 
full_name_required,Polje ime i prezime je obvezno,Full name field is required ,
phone_required,Polje telefon je obvezno,Telephone field is required ,
message_required,Polje poruka je obvezno,Message field is required ,
dob_required,Polje datum rođenja je obvezno,"Date of birth field is required ",
nanny_of_age,Morate biti punoljetni da bi se prijavili za čuvalicu,You must be of legal age to qualify for a nanny position  ,
token_expired_or_not_valid,Promo kod je istekao ili nije ispravan,Promo code is invalid or expired ,
additional_payment,Doplata rezervacije za Nanny.hr,"Insufficient balance, please add funds for Nanny.hr booking  ",
reservation_for_period,Nanny.hr - Rezervacija čuvalice za period,Nanny.hr – booking for the period of ,
discount_price,Nanny.hr - Cijena sa popustom,Nanny.hr – discounted price ,
email_header,Nanny.hr rezervacija,Nanny.hr booking,
monitor_rent,Unajmljivanje Baby monitora,Renting a Baby monitor,
reservation_confirmation,Potvrda o rezervaciji,Booking confirmation ,
reservation_notification_family,Obavijest o rezervaciji čuvalice za obitelj,Nanny booking notification for family,
pets_required,Polje koje ljubimce posjedujete je obvezno,Field which pets is required ,
address_required,Polje adresa je obvezno,Street address field is required ,
address_number_required,Polje broj adrese je obvezno,Street number field is required ,
state_required,Polje država je obvezno,Country field is required ,
city_required,Polje grad je obvezno,City field is required ,
zip_code_required,Polje poštanski broj je obvezno,Zip code is required ,
parent_name_required,Ime roditelja je obvezno,Parent’s first name is required,
parent_surname_required,Prezime roditelja je obvezno,Parent’s last name is required ,
parent_oib_required,OIB roditelja je obvezan,Parent’s OIB number is required ,
parent_dob_required,Datum rođenja roditelja je obvezan ,Parent’s date of birth is required ,
parent_of_age,Roditelj mora biti punoljetan,Parent must over 18 years old,
gender_required,Polje spol je obvezno,Gender is required ,
emergency_name_required,Ime osobe za hitni kontakt je obvezno,Emergency contact’s first name is required ,
emergency_surname_required,Prezime osobe za hitni kontakt je obvezno,Emergency contact’s last name is required ,
emergency_phone_required,Telefon osobe za hitni kontakt je obvezan,Telephone for emergency contact is required ,
emergency_relation_required,Srodstvo osobe za hitni slučaj je obvezno,Relation to emergency contact is required ,
child_name_required,Ime djeteta je obvezno,Child’s first name is required ,
child_surname_required,Prezime djeteta je obvezno,Child’s last name is required ,
child_gender_required,Spol djeteta je obvezan,Child’s gender is required ,
child_dob_required,Datum rođenja djeteta je obvezno,Child’s date of birth is required,
child_dob_valid,Datum rođenja djeteta mora biti valjan,The child must have a valid date of birth ,
welcome_nanny,Dobrodošli na Nanny.hr,Welcome to Nanny.hr ,
registration_successful,Uspješno ste registrirani,You have successfully registered with Nanny.hr  ,
finish_registration,"Da bi ste nastavili sa rezervacijom, molimo dovršite registriranje","To proceed with your booking, please complete your registration",
reset_password,Upišite Vaš e-mail kako bismo Vam poslali novu zaporku,Please enter your email address and we'll send you instructions to reset your password ,
nanny_reservation,Rezervacija čuvalice sa Nanny.hr,Booking a nanny from Nanny.hr,
transport,Prijevoz,Transport,
if_transport,"Ako trebate prijevoz djece, unesite polaznu lokaciju i destinaciju i pritisnite Dalje. U suprotnom pritisnite “Preskoči” za finaliziranje rezervacije.","If you would also like to book a ride for kids, please enter the pickup location and final destination and press ""Continue"". Otherwise, press “Skip this step” to complete this booking. ",
skip,Preskoči korak,Skip this step ,
departure,Polazak,Enter pickup location ,
destination,Dolazak,Enter destination ,
robot,Nisam robot,I am not a robot ,
date_time,Unesite vrijeme,Enter date and time,
order_transport,Naručite prijevoz,Book a ride,
distance,Udaljenost,Distance,
date_time_display,Datum i vrijeme,Date and time,
enter_departure,Unesite polazak,Enter pickup location ,
enter_destination,Unesite dolazak,Enter destination ,
transport_email_confirmation,Potvrda o rezervaciji prevoza,Transport confirmation,
transport_email_confirmation_family,Obavijest o rezervaciji prevoza za obitelj,Transport booking notification for family,
order_transport_individual,Unesite početnu i krajnju lokaciju i vrijeme prijevoza.,"Please enter your pickup location, final destination and the time of the ride. ",
direktna_uplata_1,Možete izvršiti izravnu uplatu na bankovni Nanny račun na sljedeći način:,Direct deposits to Nanny.hr bank account are conducted as follows:,
direktna_uplata_2,"Primatelj: Nanny j.d.o.o., Zagreb, Kneza Mutimira 1","Payee: Nanny j.d.o.o., Zagreb, Kneza Mutimira 1",
direktna_uplata_3,Račun primatelja: IBAN HR1224020061100796067,Payee Account: IBAN HR1224020061100796067,
direktna_uplata_4,Model: 01,Model: 01,
direktna_uplata_5,Poziv na broj: slobodno ostavite prazno ili upišite kombinaciju brojeva koja ima značenje za Vas vezano uz pojedino plaćanje (na primjer datum 06092010).,Credit Reference Number: You may leave this field blank or type in a combination of numbers significant to you (e.g. date of payment). ,
direktna_uplata_6,U opisu plaćanja obavezno navedite prezime obitelji za koju se rezervira čuvanje.,"Please note family's last name in the purpose field, on who's behalf the payment is being completed for.  ",
direktna_uplata_7,Za plaćanja iz inozemstva:,For payments from abroad:,
direktna_uplata_8,SWIFT CODE: ESBCHR22,SWIFT CODE: ESBCHR22,
,Prihvat općih uvjeta je obavezno,The Terms field is required ,
,Polje s lozinkom je obavezno ,The password field is required ,
,Email adresa mora biti valjana ,The email address must be valid,
oib_title,Nanny.hr jamči Naručiteljima potpunu diskreciju u odnosu na sve podatke o Naručiteljima i/ili osobama kojima se usluga pruža. Nanny prikuplja njihove osobne i druge podatke te o njima vodi evidenciju. Sve prethodno navedeno Nanny.hr čini samo u mjeri u kojoj je to potrebno za uredno izvršenje usluga koje pruža te u mjeri u kojoj je to potrebno za uredno izvršenje njenih obveza iz zakona i drugih prisilnih propisa.,"Nanny.hr is committed to respecting clients (buyer's) privacy, including their own information provided and of persons utilizing our services. Nanny.hr collects their personal and other information for record purposes. All stated above, Nanny.hr conducts solely for purpose of proper business operation, and delivers services aligned with the laws and regulation of this country.",